\relax 
\providecommand\HyperFirstAtBeginDocument{\AtBeginDocument}
\HyperFirstAtBeginDocument{\ifx\hyper@anchor\@undefined
\global\let\oldcontentsline\contentsline
\gdef\contentsline#1#2#3#4{\oldcontentsline{#1}{#2}{#3}}
\global\let\oldnewlabel\newlabel
\gdef\newlabel#1#2{\newlabelxx{#1}#2}
\gdef\newlabelxx#1#2#3#4#5#6{\oldnewlabel{#1}{{#2}{#3}}}
\AtEndDocument{\ifx\hyper@anchor\@undefined
\let\contentsline\oldcontentsline
\let\newlabel\oldnewlabel
\fi}
\fi}
\global\let\hyper@last\relax 
\gdef\HyperFirstAtBeginDocument#1{#1}
\providecommand\HyField@AuxAddToFields[1]{}
\citation{MR1155402}
\citation{MR1978607}
\citation{MR1155402}
\@writefile{lol}{\contentsline {lstlisting}{polya1.R}{4}{lstlisting.-1}}
\@writefile{lol}{\contentsline {lstlisting}{polya2.R}{7}{lstlisting.-2}}
\@writefile{lol}{\contentsline {lstlisting}{binaryGW.R}{7}{lstlisting.-3}}
\bibdata{GenBib}
\bibcite{MR1978607}{Asm03}
\bibcite{MR1155402}{Wil91}
\bibstyle{amsalpha}
\newlabel{tocindent-1}{0pt}
\newlabel{tocindent0}{12.7778pt}
\newlabel{tocindent1}{0pt}
\newlabel{tocindent2}{0pt}
\newlabel{tocindent3}{0pt}
\@writefile{toc}{\contentsline {section}{\tocsection {}{}{References}}{15}{section*.1}}
