\relax 
\providecommand\HyperFirstAtBeginDocument{\AtBeginDocument}
\HyperFirstAtBeginDocument{\ifx\hyper@anchor\@undefined
\global\let\oldcontentsline\contentsline
\gdef\contentsline#1#2#3#4{\oldcontentsline{#1}{#2}{#3}}
\global\let\oldnewlabel\newlabel
\gdef\newlabel#1#2{\newlabelxx{#1}#2}
\gdef\newlabelxx#1#2#3#4#5#6{\oldnewlabel{#1}{{#2}{#3}}}
\AtEndDocument{\ifx\hyper@anchor\@undefined
\let\contentsline\oldcontentsline
\let\newlabel\oldnewlabel
\fi}
\fi}
\global\let\hyper@last\relax 
\gdef\HyperFirstAtBeginDocument#1{#1}
\providecommand\HyField@AuxAddToFields[1]{}
\@writefile{toc}{\contentsline {chapter}{\tocchapter {Cap\'itulo}{1}{Martingalas}}{1}{chapter.1}}
\@writefile{lof}{\addvspace {10\p@ }}
\@writefile{lot}{\addvspace {10\p@ }}
\@writefile{toc}{\contentsline {section}{\tocsection {}{1}{Recordatorio sobre esperanza condicional}}{1}{section.1.1}}
\@writefile{toc}{\contentsline {subsection}{\tocsubsection {}{1.1}{Preliminares}}{1}{subsection.1.1.1}}
\@writefile{toc}{\contentsline {subsection}{\tocsubsection {}{1.2}{Esperanza Condicional}}{2}{subsection.1.1.2}}
\@writefile{toc}{\contentsline {subsection}{\tocsubsection {}{1.3}{Propiedades de la esperanza condicional}}{3}{subsection.1.1.3}}
\newlabel{funcion de dos independientes}{{12}{4}{\relax }{propiedad.12}{}}
\@writefile{toc}{\contentsline {section}{\tocsection {}{2}{Martingalas}}{6}{section.1.2}}
\newlabel{mounifint}{{1.2}{8}{\relax }{teorema.1.2}{}}
\@writefile{toc}{\contentsline {subsection}{\tocsubsection {}{2.1}{Ejemplos}}{9}{subsection.1.2.1}}
\newlabel{martingala cerrada}{{1.1}{9}{\relax }{ejemplo.1.1}{}}
\newlabel{caminata aleatoria}{{1.2}{9}{\relax }{ejemplo.1.2}{}}
\newlabel{martingala contraejemplo}{{1.3}{10}{\relax }{ejemplo.1.3}{}}
\newlabel{urnas de Polya}{{1.4}{10}{\relax }{ejemplo.1.4}{}}
\@writefile{toc}{\contentsline {subsection}{\tocsubsection {}{2.2}{El teorema de muestreo opcional de Doob}}{11}{subsection.1.2.2}}
\newlabel{muestreoopcionalfacil}{{1.3}{12}{\relax }{teorema.1.3}{}}
\@writefile{toc}{\contentsline {subsection}{\tocsubsection {}{2.3}{El teorema de muestreo opcional de Doob y el problema de la ruina}}{14}{subsection.1.2.3}}
\@writefile{toc}{\contentsline {subsection}{\tocsubsection {}{2.4}{El teorema de convergencia casi segura}}{16}{subsection.1.2.4}}
\newlabel{esperanzaun}{{1}{18}{El teorema de convergencia casi segura\relax }{equation.1.2.1}{}}
\@writefile{toc}{\contentsline {subsection}{\tocsubsection {}{2.5}{Procesos de Galton-Watson y un criterio de extinci\'on}}{20}{subsection.1.2.5}}
\@writefile{toc}{\contentsline {subsection}{\tocsubsection {}{2.6}{Desigualdades maximales de Doob}}{23}{subsection.1.2.6}}
\@writefile{toc}{\contentsline {subsection}{\tocsubsection {}{2.7}{La transformada martingalas}}{26}{subsection.1.2.7}}
\@writefile{toc}{\contentsline {section}{\tocsection {}{3}{Martingalas e integrabilidad uniforme}}{27}{section.1.3}}
\newlabel{martinunifint}{{1.9}{29}{\relax }{teorema.1.9}{}}
\@writefile{toc}{\contentsline {section}{\tocsection {}{4}{La ley $0-1$ de Kolmogorov}}{31}{section.1.4}}
\@writefile{toc}{\contentsline {section}{\tocsection {}{5}{Martingalas reversas y la ley fuerte de los grandes n\'umeros}}{32}{section.1.5}}
\@writefile{toc}{\contentsline {section}{\tocsection {}{6}{Urnas de P\'olya y el teorema de de Finetti}}{35}{section.1.6}}
\@writefile{toc}{\contentsline {section}{\tocsection {}{7}{Regularizaci\'on de martingalas}}{37}{section.1.7}}
\@writefile{toc}{\contentsline {section}{\tocsection {}{8}{Martingalas y sumas de variables aleatorias independientes}}{40}{section.1.8}}
\newlabel{psin}{{2}{41}{Martingalas y sumas de variables aleatorias independientes\relax }{equation.1.8.2}{}}
\newlabel{expncon}{{3}{41}{Martingalas y sumas de variables aleatorias independientes\relax }{equation.1.8.3}{}}
\@writefile{toc}{\contentsline {chapter}{\tocchapter {Cap\'itulo}{2}{Cadenas de Markov}}{44}{chapter.2}}
\@writefile{lof}{\addvspace {10\p@ }}
\@writefile{lot}{\addvspace {10\p@ }}
\@writefile{toc}{\contentsline {section}{\tocsection {}{1}{Una sucesi\'on de variables aleatorias Bernoulli independientes}}{44}{section.2.1}}
\newlabel{SeccionDeBernoullisIndependientes}{{1}{44}{Una sucesi\'on de variables aleatorias Bernoulli independientes\relax }{section.2.1}{}}
\newlabel{RepresentacionDiadica}{{4}{45}{Una sucesi\'on de variables aleatorias Bernoulli independientes\relax }{equation.2.1.4}{}}
\@writefile{toc}{\contentsline {section}{\tocsection {}{2}{El espacio can\'onico}}{46}{section.2.2}}
\newlabel{EspacioCanonicoParaBernoullisIndependientes}{{2}{46}{El espacio can\'onico\relax }{section.2.2}{}}
\newlabel{PreMedidaBernoulli}{{5}{46}{El espacio can\'onico\relax }{equation.2.2.5}{}}
\@writefile{toc}{\contentsline {section}{\tocsection {}{3}{Una sucesi\'on de variables aleatorias uniformes independientes}}{47}{section.2.3}}
\newlabel{IndependenciaPorFranjas}{{6}{48}{Una sucesi\'on de variables aleatorias uniformes independientes\relax }{equation.2.3.6}{}}
\@writefile{toc}{\contentsline {section}{\tocsection {}{4}{Una sucesi\'on de variables aleatorias independientes con distribuciones arbitrarias}}{48}{section.2.4}}
\newlabel{productoNumerable}{{2.1}{48}{\relax }{teorema.2.1}{}}
\@writefile{toc}{\contentsline {section}{\tocsection {}{5}{Cadenas de Markov}}{49}{section.2.5}}
\newlabel{PropiedadDeMarkovEnCadenas}{{7}{50}{\relax }{equation.2.5.7}{}}
\@writefile{toc}{\contentsline {section}{\tocsection {}{6}{Construcci\'on de una cadena de Markov}}{52}{section.2.6}}
\@writefile{toc}{\contentsline {section}{\tocsection {}{7}{Ejemplos de cadenas de Markov}}{53}{section.2.7}}
\newlabel{RepresentacionGaltonWatson}{{8}{53}{Procesos de Galton-Watson\relax }{equation.2.7.8}{}}
\@writefile{toc}{\contentsline {section}{\tocsection {}{8}{An\'alisis b\'asico de cadenas de Markov}}{55}{section.2.8}}
\@writefile{toc}{\contentsline {section}{\tocsection {}{9}{La propiedad de Markov en el espacio can\'onico}}{55}{section.2.9}}
\newlabel{ProblemaDeLaRuinaComoProbabilidad}{{9}{57}{El problema de la ruina\relax }{equation.2.9.9}{}}
\citation{MR0162279}
\citation{MR0375485}
\@writefile{lof}{\contentsline {figure}{\numberline {1}{\ignorespaces Reflexi\'on de una caminata aleatoria (en negro) en su m\'aximo acumulativo (en rojo)}}{66}{figure.2.1}}
\newlabel{2m-x}{{1}{66}{Reflexi\'on de una caminata aleatoria (en negro) en su m\'aximo acumulativo (en rojo)\relax }{figure.2.1}{}}
\@writefile{toc}{\contentsline {section}{\tocsection {}{10}{Recurrencia y transitoriedad}}{66}{section.2.10}}
\@writefile{toc}{\contentsline {section}{\tocsection {}{11}{Distribuciones invariantes}}{69}{section.2.11}}
\@writefile{toc}{\contentsline {subsection}{\tocsubsection {}{11.1}{Existencia y unicidad}}{70}{subsection.2.11.1}}
\@writefile{toc}{\contentsline {subsection}{\tocsubsection {}{11.2}{Teorema fundamental de convergencia}}{74}{subsection.2.11.2}}
\@writefile{toc}{\contentsline {section}{\tocsection {}{12}{Probabilidad condicional regular}}{76}{section.2.12}}
\@writefile{toc}{\contentsline {section}{\tocsection {}{13}{El teorema de Kolmogorov para procesos estoc\'asticos a tiempo discreto}}{78}{section.2.13}}
\newlabel{kolmogorov}{{2.7}{78}{Caso particular del teorema de Kolmogorov\relax }{teorema.2.7}{}}
\@writefile{toc}{\contentsline {section}{\tocsection {}{14}{El teorema de Kolmogorov para procesos estoc\'asticos a tiempo continuo}}{78}{section.2.14}}
\@writefile{toc}{\contentsline {chapter}{\tocchapter {Cap\'itulo}{3}{Procesos de renovaci\'on}}{81}{chapter.3}}
\@writefile{lof}{\addvspace {10\p@ }}
\@writefile{lot}{\addvspace {10\p@ }}
\@writefile{lof}{\contentsline {figure}{\numberline {1}{\ignorespaces Ilustraci\'on de las definiciones de proceso de renovaci\'on}}{82}{figure.3.1}}
\newlabel{GraficoRenovacion}{{1}{82}{Ilustraci\'on de las definiciones de proceso de renovaci\'on\relax }{figure.3.1}{}}
\@writefile{lof}{\contentsline {figure}{\numberline {2}{\ignorespaces Laberinto para un experimento aleatorio}}{82}{figure.3.2}}
\newlabel{Laberinto}{{2}{82}{Laberinto para un experimento aleatorio\relax }{figure.3.2}{}}
\newlabel{WaldParaRenovacion}{{10}{87}{Procesos de renovaci\'on\relax }{equation.3.0.10}{}}
\@writefile{toc}{\contentsline {section}{\tocsection {}{1}{La medida de renovaci\'on en el caso aritm\'etico}}{88}{section.3.1}}
\@writefile{toc}{\contentsline {section}{\tocsection {}{2}{La ecuaci\'on de renovaci\'on en el caso aritm\'etico}}{89}{section.3.2}}
\@writefile{toc}{\contentsline {section}{\tocsection {}{3}{La medida de renovaci\'on en el caso no-aritm\'etico}}{92}{section.3.3}}
\@writefile{toc}{\contentsline {chapter}{\tocchapter {Cap\'itulo}{4}{El proceso de Poisson}}{96}{chapter.4}}
\@writefile{lof}{\addvspace {10\p@ }}
\@writefile{lot}{\addvspace {10\p@ }}
\newlabel{distribucionDeN_t}{{4.1}{96}{\relax }{proposicion.4.1}{}}
\@writefile{toc}{\contentsline {section}{\tocsection {}{1}{El proceso de Poisson como proceso de L\'evy}}{96}{section.4.1}}
\newlabel{IncrementosIndependientesImplicanIncrementosIndepDelPasadoEjercicio}{{4.1}{97}{\relax }{ejercicio.4.1}{}}
\newlabel{Conteo:PoissonSSILevy}{{4.1}{97}{\relax }{teorema.4.1}{}}
\@writefile{toc}{\contentsline {section}{\tocsection {}{2}{El proceso de Poisson compuesto}}{99}{section.4.2}}
\citation{MR898871}
\citation{MR898871}
\@writefile{toc}{\contentsline {section}{\tocsection {}{3}{La propiedad de Markov fuerte para procesos de L\'evy}}{102}{section.4.3}}
\@writefile{toc}{\contentsline {section}{\tocsection {}{4}{Medidas aleatorias de Poisson}}{104}{section.4.4}}
\newlabel{ProcesoPoissonDaMedidaPoisson}{{4.5}{105}{\relax }{proposicion.4.5}{}}
\@writefile{toc}{\contentsline {section}{\tocsection {}{5}{Construcci\'on de procesos de L\'evy mediante medidas de Poisson}}{110}{section.4.5}}
\@writefile{toc}{\contentsline {chapter}{\tocchapter {Cap\'itulo}{5}{Procesos de Markov constantes por pedazos}}{113}{chapter.5}}
\@writefile{lof}{\addvspace {10\p@ }}
\@writefile{lot}{\addvspace {10\p@ }}
\@writefile{toc}{\contentsline {section}{\tocsection {}{1}{El proceso de Poisson como proceso de Markov}}{113}{section.5.1}}
\newlabel{CKEquationsForPoisson}{{11}{115}{\relax }{equation.5.1.11}{}}
\@writefile{toc}{\contentsline {section}{\tocsection {}{2}{El proceso de nacimiento puro}}{116}{section.5.2}}
\@writefile{toc}{\contentsline {section}{\tocsection {}{3}{Matrices infinitesimales y construcci\'on de procesos de Markov}}{119}{section.5.3}}
\newlabel{MinimoDeExponenciales}{{5.3}{120}{\relax }{proposicion.5.3}{}}
\@writefile{toc}{\contentsline {section}{\tocsection {}{4}{Cadenas de Markov constantes por pedazos}}{123}{section.5.4}}
\newlabel{ProposicionPrimerPasoCTMC}{{5.6}{125}{\relax }{proposicion.5.6}{}}
\newlabel{CaracterizacionCTMC}{{12}{127}{Cadenas de Markov constantes por pedazos\relax }{equation.5.4.12}{}}
\newlabel{CKatStoppingTime}{{13}{131}{Cadenas de Markov constantes por pedazos\relax }{equation.5.4.13}{}}
\@writefile{toc}{\contentsline {section}{\tocsection {}{5}{Distribuciones invariantes}}{132}{section.5.5}}
\newlabel{KolmogorovBackwardForInvariance}{{14}{133}{Distribuciones invariantes\relax }{equation.5.5.14}{}}
\citation{MR1876169}
\@writefile{toc}{\contentsline {chapter}{\tocchapter {Cap\'itulo}{6}{El movimiento browniano}}{137}{chapter.6}}
\@writefile{lof}{\addvspace {10\p@ }}
\@writefile{lot}{\addvspace {10\p@ }}
\@writefile{toc}{\contentsline {section}{\tocsection {}{1}{Vectores gaussianos}}{137}{section.6.1}}
\@writefile{lof}{\contentsline {figure}{\numberline {1}{\ignorespaces Aproximaciones al movimiento browniano}}{143}{figure.6.1}}
\newlabel{simulevy}{{1}{143}{Aproximaciones al movimiento browniano\relax }{figure.6.1}{}}
\@writefile{toc}{\contentsline {section}{\tocsection {}{2}{Existencia del movimiento browniano}}{143}{section.6.2}}
\@writefile{toc}{\contentsline {subsection}{\tocsubsection {}{2.1}{El m\'etodo de L\'evy}}{143}{subsection.6.2.1}}
\@writefile{toc}{\contentsline {subsection}{\tocsubsection {}{2.2}{El m\'etodo de Kolmogorov}}{146}{subsection.6.2.2}}
\@writefile{toc}{\contentsline {section}{\tocsection {}{3}{La propiedad de Markov}}{147}{section.6.3}}
\@writefile{toc}{\contentsline {section}{\tocsection {}{4}{Martingalas y procesos asociados}}{148}{section.6.4}}
\@writefile{toc}{\contentsline {section}{\tocsection {}{5}{Principio de invariancia de Donsker}}{153}{section.6.5}}
\@writefile{toc}{\contentsline {section}{\tocsection {}{6}{El puente browniano}}{156}{section.6.6}}
\@writefile{toc}{\contentsline {section}{\tocsection {}{7}{Algunos c\'alculos distribucionales}}{157}{section.6.7}}
\bibdata{GenBib}
\bibcite{MR898871}{BGT87}
\bibcite{MR1876169}{Kal02}
\bibcite{MR0162279}{KS63}
\bibcite{MR0375485}{Pit75}
\bibstyle{amsalpha}
\newlabel{tocindent-1}{0pt}
\newlabel{tocindent0}{58.88902pt}
\newlabel{tocindent1}{22.77783pt}
\newlabel{tocindent2}{35.1387pt}
\newlabel{tocindent3}{0pt}
\@writefile{toc}{\contentsline {chapter}{\tocchapter {\chaptername }{}{Bibliograf\'{\i }a}}{162}{chapter*.5}}
\@writefile{lof}{\addvspace {10\p@ }}
\@writefile{lot}{\addvspace {10\p@ }}
